%YAML 1.1
%TAG !u! tag:unity3d.com,2011:
--- !u!1045 &1
EditorBuildSettings:
  m_ObjectHideFlags: 0
  serializedVersion: 2
  m_Scenes:
  - enabled: 0
    path: Assets/Scenes/Level 1.unity
    guid: 2cda990e2423bbf4892e6590ba056729
  - enabled: 0
    path: Assets/Scenes/Test.unity
    guid: 8dc639433a437864f89a7a65a1a2ba48
  - enabled: 1
    path: Assets/Scenes/Level 1 Light test.unity
    guid: d5912f09ef7f90d4b8e446001275e774
  m_configObjects: {}
